…
cities_glm
```

    ## # A tibble: 47 × 4
    ##    city_state     odds_ratio CI_lower CI_upper
    ##    <chr>               <dbl>    <dbl>    <dbl>
    ##  1 Albuquerque_NM      1.77     0.831    3.76 
    ##  2 Atlanta_GA          1.00     0.684    1.46 
    ##  3 Baltimore_MD        0.426    0.325    0.558
    ##  4 Baton Rouge_LA      0.381    0.209    0.695
    ##  5 Birmingham_AL       0.870    0.574    1.32 
    ##  6 Boston_MA           0.674    0.356    1.28 
    ##  7 Buffalo_NY          0.521    0.290    0.935
    ##  8 Charlotte_NC        0.884    0.557    1.40 
    ##  9 Chicago_IL          0.410    0.336    0.501
    ## 10 Cincinnati_OH       0.400    0.236    0.677
    ## # … with 37 more rows
…
